Final Project
…
Dataset_tsb <- Dataset %>%
  mutate(Week_number = row_number(),
          fixed_rate =MORTGAGE30US,
         CPI = CPALTT01USM659N,
         Three_month_lag_CPI = lag(CPI, n = 12L),
         Two_month_lag_CPI = lag(CPI, n = 8L),
        one_year_lag_fixed_rate = lag(fixed_rate, n=52L)) %>%
  as_tsibble(index = Week_number, regular = TRUE) %>% 
  filter(!is.na(Three_month_lag_CPI), !is.na(one_year_lag_fixed_rate), !is.na(Two_month_lag_CPI)) %>% 
  select(-MORTGAGE30US,
         -CPALTT01USM659N)

Dataset_tsb

## # A tsibble: 2,644 x 7 [1]
##       Month Week_number fixed_rate   CPI Three_month_lag_CPI Two_month one_y
##       <mth>       <int>      <dbl> <dbl>               <dbl>       <dbl>   <dbl>
##  1 1972 Mar          53       7.23  3.50                3.27        3.51    7.33
##  2 1972 Apr          54       7.25  3.49                3.27        3.51    7.31
##  3 1972 Apr          55       7.29  3.49                3.27        3.51    7.31
##  4 1972 Apr          56       7.29  3.49                3.27        3.51    7.31
##  5 1972 Apr          57       7.33  3.49                3.51        3.50    7.29
##  6 1972 May          58       7.33  3.23                3.51        3.50    7.38
##  7 1972 May          59       7.38  3.23                3.51        3.50    7.42
##  8 1972 May          60       7.38  3.23                3.51        3.50    7.44
##  9 1972 May          61       7.4   3.23                3.50        3.50    7.46
## 10 1972 Jun          62       7.36  2.71                3.50        3.49    7.52
## #  with 2,634 more rows, and abbreviated variable names Two_month_lag_CPI,
## #   one_year_lag_fixed_rate
…
The dataset does not need not need a seasonal difference.

The dataset does need a difference.

The dataset is stationary after taking a difference of fixed
rate.

Dataset_tsb_updated <- Dataset_tsb %>%
  mutate(diff_fixed_rate = difference(fixed_rate), lag_diff_fixed_rate = lag(diff_fixed_rate)) %>% 
           filter(!is.na(diff_fixed_rate), !is.na(lag_diff_fixed_rate))

Dataset_tsb_updated

## # A tsibble: 2,642 x 9 [1]
##       Month Week_number fixed_rate   CPI Three Two_m one_y diff_ lag_d
##       <mth>       <int>      <dbl> <dbl>   <dbl>   <dbl>   <dbl>   <dbl>   <dbl>
##  1 1972 Apr          55       7.29  3.49    3.27    3.51    7.31  0.0400  0.0200
##  2 1972 Apr          56       7.29  3.49    3.27    3.51    7.31  0       0.0400
##  3 1972 Apr          57       7.33  3.49    3.51    3.50    7.29  0.0400  0     
##  4 1972 May          58       7.33  3.23    3.51    3.50    7.38  0       0.0400
##  5 1972 May          59       7.38  3.23    3.51    3.50    7.42  0.0500  0     
##  6 1972 May          60       7.38  3.23    3.51    3.50    7.44  0       0.0500
##  7 1972 May          61       7.4   3.23    3.50    3.50    7.46  0.0200  0     
##  8 1972 Jun          62       7.36  2.71    3.50    3.49    7.52 -0.0400  0.0200
##  9 1972 Jun          63       7.38  2.71    3.50    3.49    7.52  0.0200 -0.0400
## 10 1972 Jun          64       7.38  2.71    3.50    3.49    7.54  0       0.0200
## #  with 2,632 more rows, and abbreviated variable names Three_month_lag_CPI,
## #   Two_month_lag_CPI, one_year_lag_fixed_rate, diff_fixed_rate,
## #   lag_diff_fixed_rate
…
